
{
    "list" :[
        {
		  "source": "Bangalore",
		  "destination": ["Chennai","Coimbatore","Madurai"]
        },
        
        {
            "source": "Chennai",
            "destination": ["Coimbatore","Bangalore","Madurai"]
        },
        
        {
            "source": "Coimbatore",
            "destination": ["Bangalore","Madurai","Chennai"]
        }
	]
}